pipeline_cpu.vcd
$date
	Tue Jul  1 16:50:26 2025
$end
$version
	Icarus Verilog
$end
$timescale
	1ps
$end
$scope module pipeline_sccomp_tb $end
$var wire 32 ! reg_data [31:0] $end
$var reg 1 " clk $end
$var reg 5 # reg_sel [4:0] $end
$var reg 1 $ rstn $end
$scope module U_pipeline_sccomp $end
$var wire 32 % alu_disp_data [31:0] $end
$var wire 1 " clk $end
$var wire 1 & rst $end
$var wire 1 $ rstn $end
$var wire 16 ' sw_i [15:0] $end
$var wire 32 ( instr [31:0] $end
$var wire 3 ) dm_type [2:0] $end
$var wire 32 * dm_dout [31:0] $end
$var wire 32 + dm_din [31:0] $end
$var wire 32 , dm_addr [31:0] $end
$var wire 8 - disp_seg_o [7:0] $end
$var wire 8 . disp_an_o [7:0] $end
$var wire 1 / cpu_pause $end
$var wire 1 0 clk_select $end
$var wire 1 1 clk_cpu $end
$var wire 32 2 PC [31:0] $end
$var wire 1 3 MemWrite $end
$var parameter 32 4 DMEM_ADDR_NUM $end
$var parameter 32 5 REG_ADDR_NUM $end
$var reg 32 6 clkdiv [31:0] $end
$var reg 64 7 display_data [63:0] $end
$var reg 7 8 dmem_addr [6:0] $end
$var reg 32 9 dmem_data [31:0] $end
$var reg 64 : led_disp_data [63:0] $end
$var reg 5 ; reg_addr [4:0] $end
$var reg 32 < reg_disp_data [31:0] $end
$scope module U_DM $end
$var wire 1 1 clk $end
$var wire 32 = dout [31:0] $end
$var wire 7 > word_addr [6:0] $end
$var wire 32 ? din [31:0] $end
$var wire 2 @ byte_offset [1:0] $end
$var wire 32 A addr [31:0] $end
$var wire 1 3 DMWr $end
$var wire 3 B DMType [2:0] $end
$var reg 32 C load_data [31:0] $end
$upscope $end
$scope module U_IM $end
$var wire 7 D addr [8:2] $end
$var wire 32 E dout [31:0] $end
$upscope $end
$scope module U_pipeline_CPU $end
$var wire 32 F Addr_out [31:0] $end
$var wire 1 G BranchTaken $end
$var wire 3 H DMType_out [2:0] $end
$var wire 32 I Data_in [31:0] $end
$var wire 32 J PC_out [31:0] $end
$var wire 1 K branch_condition $end
$var wire 1 1 clk $end
$var wire 32 L inst_in [31:0] $end
$var wire 1 M is_jump_ID $end
$var wire 1 N jalr_load_hazard_detected $end
$var wire 1 3 mem_w $end
$var wire 1 & reset $end
$var wire 20 O uimm [19:0] $end
$var wire 1 P stall $end
$var wire 12 Q simm [11:0] $end
$var wire 5 R rs2_ID [4:0] $end
$var wire 5 S rs1_ID [4:0] $end
$var wire 5 T rd_ID [4:0] $end
$var wire 20 U jimm [19:0] $end
$var wire 32 V imm_ID [31:0] $end
$var wire 5 W iimm_shamt [4:0] $end
$var wire 12 X iimm [11:0] $end
$var wire 1 Y forwardMEM $end
$var wire 2 Z forwardB_branch [1:0] $end
$var wire 2 [ forwardB [1:0] $end
$var wire 2 \ forwardA_branch [1:0] $end
$var wire 2 ] forwardA [1:0] $end
$var wire 1 ^ flush_IFID $end
$var wire 1 _ flush_IDEX $end
$var wire 32 ` branch_target [31:0] $end
$var wire 12 a bimm [11:0] $end
$var wire 1 b Zero_EX $end
$var wire 2 c WDSel_ID [1:0] $end
$var wire 1 d RegWrite_ID $end
$var wire 32 e RD2_ID [31:0] $end
$var wire 32 f RD1_ID [31:0] $end
$var wire 32 g PC4_IF [31:0] $end
$var wire 3 h NPCOp_ID [2:0] $end
$var wire 32 i NPC [31:0] $end
$var wire 1 j MemWrite_ID $end
$var wire 1 k IsJALR_ID $end
$var wire 1 l IsBranch_ID $end
$var wire 6 m EXTOp_ID [5:0] $end
$var wire 32 n Data_out [31:0] $end
$var wire 3 o DMType_ID [2:0] $end
$var wire 32 p ALU_B [31:0] $end
$var wire 1 q ALUSrc_ID $end
$var wire 32 r ALUOut_EX [31:0] $end
$var wire 5 s ALUOp_ID [4:0] $end
$var reg 32 t ALU_A [31:0] $end
$var reg 32 u ALU_B_forwarded [31:0] $end
$var reg 32 v EXMEM_ALUOut [31:0] $end
$var reg 3 w EXMEM_DMType [2:0] $end
$var reg 1 x EXMEM_MemWrite $end
$var reg 32 y EXMEM_PC4 [31:0] $end
$var reg 32 z EXMEM_RD2 [31:0] $end
$var reg 1 { EXMEM_RegWrite $end
$var reg 2 | EXMEM_WDSel [1:0] $end
$var reg 1 } EXMEM_Zero $end
$var reg 5 ~ EXMEM_rd [4:0] $end
$var reg 5 !" EXMEM_rs2 [4:0] $end
$var reg 1 "" EXMEM_valid $end
$var reg 5 #" IDEX_ALUOp [4:0] $end
$var reg 1 $" IDEX_ALUSrc $end
$var reg 3 %" IDEX_DMType [2:0] $end
$var reg 1 &" IDEX_MemWrite $end
$var reg 3 '" IDEX_NPCOp [2:0] $end
$var reg 32 (" IDEX_PC [31:0] $end
$var reg 32 )" IDEX_PC4 [31:0] $end
$var reg 32 *" IDEX_RD1 [31:0] $end
$var reg 32 +" IDEX_RD2 [31:0] $end
$var reg 1 ," IDEX_RegWrite $end
$var reg 2 -" IDEX_WDSel [1:0] $end
$var reg 32 ." IDEX_imm [31:0] $end
$var reg 5 /" IDEX_rd [4:0] $end
$var reg 5 0" IDEX_rs1 [4:0] $end
$var reg 5 1" IDEX_rs2 [4:0] $end
$var reg 1 2" IDEX_valid $end
$var reg 32 3" IFID_PC [31:0] $end
$var reg 32 4" IFID_PC4 [31:0] $end
$var reg 32 5" IFID_inst [31:0] $end
$var reg 1 6" IFID_valid $end
$var reg 32 7" MEMWB_ALUOut [31:0] $end
$var reg 32 8" MEMWB_MemData [31:0] $end
$var reg 32 9" MEMWB_PC4 [31:0] $end
$var reg 1 :" MEMWB_RegWrite $end
$var reg 2 ;" MEMWB_WDSel [1:0] $end
$var reg 5 <" MEMWB_rd [4:0] $end
$var reg 1 =" MEMWB_valid $end
$var reg 32 >" PC_IF [31:0] $end
$var reg 32 ?" WriteData_WB [31:0] $end
$var reg 32 @" branch_A [31:0] $end
$var reg 32 A" branch_B [31:0] $end
$var reg 1 B" branch_result $end
$scope module U_EXT $end
$var wire 12 C" bimm [11:0] $end
$var wire 12 D" iimm [11:0] $end
$var wire 5 E" iimm_shamt [4:0] $end
$var wire 20 F" jimm [19:0] $end
$var wire 12 G" simm [11:0] $end
$var wire 20 H" uimm [19:0] $end
$var wire 6 I" EXTOp [5:0] $end
$var reg 32 J" immout [31:0] $end
$upscope $end
$scope module U_RF $end
$var wire 5 K" A1 [4:0] $end
$var wire 5 L" A2 [4:0] $end
$var wire 5 M" A3 [4:0] $end
$var wire 1 N" RFWr $end
$var wire 32 O" WD [31:0] $end
$var wire 1 1 clk $end
$var wire 1 & rst $end
$var wire 32 P" RD2 [31:0] $end
$var wire 32 Q" RD1 [31:0] $end
$var integer 32 R" i [31:0] $end
$upscope $end
$scope module U_alu $end
$var wire 32 S" A [31:0] $end
$var wire 5 T" ALUOp [4:0] $end
$var wire 32 U" B [31:0] $end
$var wire 32 V" PC [31:0] $end
$var wire 1 b Zero $end
$var reg 32 W" C [31:0] $end
$upscope $end
$scope module U_ctrl $end
$var wire 1 q ALUSrc $end
$var wire 3 X" Funct3 [2:0] $end
$var wire 7 Y" Funct7 [6:0] $end
$var wire 1 j MemWrite $end
$var wire 7 Z" Op [6:0] $end
$var wire 1 d RegWrite $end
$var wire 1 [" Zero $end
$var wire 1 \" i_add $end
$var wire 1 ]" i_addi $end
$var wire 1 ^" i_and $end
$var wire 1 _" i_andi $end
$var wire 1 `" i_auipc $end
$var wire 1 a" i_beq $end
$var wire 1 b" i_bge $end
$var wire 1 c" i_bgeu $end
$var wire 1 d" i_blt $end
$var wire 1 e" i_bltu $end
$var wire 1 f" i_bne $end
$var wire 1 g" i_jal $end
$var wire 1 h" i_jalr $end
$var wire 1 i" i_lb $end
$var wire 1 j" i_lbu $end
$var wire 1 k" i_lh $end
$var wire 1 l" i_lhu $end
$var wire 1 m" i_lui $end
$var wire 1 n" i_lw $end
$var wire 1 o" i_or $end
$var wire 1 p" i_ori $end
$var wire 1 q" i_sb $end
$var wire 1 r" i_sh $end
$var wire 1 s" i_sll $end
$var wire 1 t" i_slli $end
$var wire 1 u" i_slt $end
$var wire 1 v" i_slti $end
$var wire 1 w" i_sltiu $end
$var wire 1 x" i_sltu $end
$var wire 1 y" i_sra $end
$var wire 1 z" i_srai $end
$var wire 1 {" i_srl $end
$var wire 1 |" i_srli $end
$var wire 1 }" i_sub $end
$var wire 1 ~" i_sw $end
$var wire 1 !# i_xor $end
$var wire 1 "# i_xori $end
$var wire 1 ## itype_l $end
$var wire 1 $# itype_r $end
$var wire 1 %# rtype $end
$var wire 1 &# sbtype $end
$var wire 1 '# stype $end
$var wire 2 (# WDSel [1:0] $end
$var wire 3 )# NPCOp [2:0] $end
$var wire 6 *# EXTOp [5:0] $end
$var wire 3 +# DMType [2:0] $end
$var wire 5 ,# ALUOp [4:0] $end
$upscope $end
$scope module U_forwarding $end
$var wire 1 ," RegWrite_EX $end
$var wire 1 { RegWrite_MEM $end
$var wire 1 :" RegWrite_WB $end
$var wire 5 -# rd_EX [4:0] $end
$var wire 5 .# rd_MEM [4:0] $end
$var wire 5 /# rd_WB [4:0] $end
$var wire 5 0# rs1_EX [4:0] $end
$var wire 5 1# rs1_ID [4:0] $end
$var wire 5 2# rs2_EX [4:0] $end
$var wire 5 3# rs2_ID [4:0] $end
$var wire 5 4# rs2_MEM [4:0] $end
$var reg 2 5# forwardA [1:0] $end
$var reg 2 6# forwardA_branch [1:0] $end
$var reg 2 7# forwardB [1:0] $end
$var reg 2 8# forwardB_branch [1:0] $end
$var reg 1 Y forwardMEM $end
$upscope $end
$scope module U_hazard_detection $end
$var wire 1 G BranchTaken $end
$var wire 1 l IsBranch_ID $end
$var wire 1 k IsJALR_ID $end
$var wire 1 9# MemRead_EX $end
$var wire 1 :# MemRead_MEM $end
$var wire 1 j MemWrite_ID $end
$var wire 1 ," RegWrite_EX $end
$var wire 1 { RegWrite_MEM $end
$var wire 1 ;# branch_arith_hazard $end
$var wire 1 <# branch_load_hazard $end
$var wire 1 =# branch_load_hazard_EX $end
$var wire 1 ># branch_load_hazard_MEM $end
$var wire 1 ?# jalr_arith_hazard $end
$var wire 1 @# jalr_load_hazard $end
$var wire 1 A# jalr_load_hazard_EX $end
$var wire 1 B# jalr_load_hazard_MEM $end
$var wire 1 C# load_use_hazard $end
$var wire 5 D# rd_EX [4:0] $end
$var wire 5 E# rd_MEM [4:0] $end
$var wire 5 F# rs1_ID [4:0] $end
$var wire 5 G# rs2_ID [4:0] $end
$var wire 1 H# rs2_can_forward $end
$var wire 1 I# rs2_hazard $end
$var wire 1 J# rs1_hazard $end
$var reg 1 _ flush_IDEX $end
$var reg 1 ^ flush_IFID $end
$var reg 1 P stall $end
$upscope $end
$upscope $end
$scope module u_seg7x16 $end
$var wire 1 " clk $end
$var wire 64 K# data [63:0] $end
$var wire 1 L# mode $end
$var wire 1 $ rstn $end
$var wire 1 M# clk_1k $end
$var reg 3 N# addr [2:0] $end
$var reg 64 O# data_store [63:0] $end
$var reg 8 P# seg [7:0] $end
$var reg 8 Q# seg_data [7:0] $end
$var reg 8 R# sel [7:0] $end
$scope module cd_1khz $end
$var wire 1 " clk_in $end
$var wire 1 S# reset $end
$var parameter 32 T# COUNT $end
$var reg 1 M# clk_out $end
$var reg 32 U# count [31:0] $end
$upscope $end
$upscope $end
$upscope $end
$upscope $end
$enddefinitions $end
$comment Show the parameter values. $end
$dumpall
b1100001101010000 T#
b100000 5
b10000 4
$end
#0
$dumpvars
b0 U#
1S#
b11111111 R#
b0 Q#
b11111111 P#
b0 O#
b0 N#
0M#
0L#
b0xxxxxxxxxxxxxxxxxxxxxxxxxxxxxxxx K#
xJ#
xI#
xH#
bx G#
bx F#
bx E#
bx D#
xC#
xB#
xA#
x@#
x?#
x>#
x=#
x<#
x;#
x:#
x9#
bx 8#
bx 7#
bx 6#
bx 5#
bx 4#
bx 3#
bx 2#
bx 1#
bx 0#
bx /#
bx .#
bx -#
bx ,#
bx +#
bx *#
bx )#
bx (#
x'#
x&#
x%#
x$#
x##
x"#
x!#
x~"
x}"
x|"
x{"
xz"
xy"
xx"
xw"
xv"
xu"
xt"
xs"
xr"
xq"
xp"
xo"
xn"
xm"
xl"
xk"
xj"
xi"
xh"
xg"
xf"
xe"
xd"
xc"
xb"
xa"
x`"
x_"
x^"
x]"
x\"
0["
bx Z"
bx Y"
bx X"
bx W"
bx V"
bx U"
bx T"
bx S"
b100000 R"
bx Q"
bx P"
bx O"
xN"
bx M"
bx L"
bx K"
bx J"
bx I"
bx H"
bx G"
bx F"
bx E"
bx D"
bx C"
xB"
bx A"
bx @"
bx ?"
bx >"
x="
bx <"
bx ;"
x:"
bx 9"
bx 8"
bx 7"
x6"
bx 5"
bx 4"
bx 3"
x2"
bx 1"
bx 0"
bx /"
bx ."
bx -"
x,"
bx +"
bx *"
bx )"
bx ("
bx '"
x&"
bx %"
x$"
bx #"
x""
bx !"
bx ~
x}
bx |
x{
bx z
bx y
xx
bx w
bx v
bx u
bx t
bx s
bx r
xq
bx p
bx o
bx n
bx m
xl
xk
xj
bx i
bx h
bx g
bx f
bx e
xd
bx c
xb
bx a
bx `
x_
x^
bx ]
bx \
bx [
bx Z
xY
bx X
bx W
bx V
bx U
bx T
bx S
bx R
bx Q
xP
bx O
xN
xM
bx L
xK
bx J
bx I
bx H
xG
bx F
bx E
bx D
bx C
bx B
bx A
bx @
bx ?
bx >
bx =
b11111111111111111111111111111111 <
b0 ;
b1111111111111111111111111111111111111111111111111111111111111111 :
b11111111111111111111111111111111 9
b0 8
b0xxxxxxxxxxxxxxxxxxxxxxxxxxxxxxxx 7
b0 6
x3
bx 2
01
00
0/
b11111111 .
b11111111 -
bx ,
bx +
bx *
bx )
bx (
b0 '
1&
bx %
0$
b0 #
0"
bz !
$end
#5000
b0 `
b0 V
b0 J"
0\"
1q
1d
1]"
0i"
0q"
0a"
b100 i
0}"
0G
1$#
0K
0%#
0##
0j
0'#
0l
0&#
b0 c
b0 (#
0M
b11 s
b11 ,#
0k
0h"
b0 h
b0 )#
0g"
0`"
0m"
0!#
b0 o
b0 +#
0j"
0"#
b10000 m
b10000 I"
b10000 *#
0d"
1B"
0o"
0u"
0n"
0p"
0v"
0~"
0e"
b0 @"
b0 A"
0^"
0s"
0x"
0{"
0y"
0k"
0l"
0_"
0w"
0t"
0|"
0z"
0r"
0f"
0b"
0c"
0_
0^
0P
0N
0<#
0@#
b0 f
b0 Q"
0H#
b0 e
b0 P"
0C#
0=#
0;#
0A#
0?#
0>#
0B#
b10100000000001010010011 (
b10100000000001010010011 E
b10100000000001010010011 L
b0 D
1J#
b0 S
b0 K"
b0 1#
b0 F#
1I#
b0 R
b0 L"
b0 3#
b0 G#
b0 T
b10011 Z"
b0 Y"
b0 X"
b0 W
b0 E"
b0 X
b0 D"
b0 Q
b0 G"
b0 a
b0 C"
b0 O
b0 H"
b0 U
b0 F"
b0 p
b0 U"
1b
b0 r
b0 W"
03
b0 +
b0 ?
b0 n
b0 u
b0 t
b0 S"
b0 @
b0 >
0N"
0Y
b0 Z
b0 8#
b0 \
b0 6#
b0 [
b0 7#
b0 ]
b0 5#
b0 ?"
b0 O"
b100 g
b0 2
b0 J
b0 >"
06"
b10011 5"
b100 4"
b0 3"
02"
0$"
0&"
0,"
09#
b0 -"
b0 %"
b0 '"
b0 #"
b0 T"
b0 /"
b0 -#
b0 D#
b0 1"
b0 2#
b0 0"
b0 0#
b0 ."
b0 +"
b0 *"
b100 )"
b0 ("
b0 V"
0""
0}
0x
0{
0:#
b0 |
b0 )
b0 B
b0 H
b0 w
b0 !"
b0 4#
b0 ~
b0 .#
b0 E#
b0 z
b0 ,
b0 A
b0 F
b0 %
b0 v
b100 y
0="
0:"
b0 ;"
b0 <"
b0 M"
b0 /#
b0 8"
b0 7"
b100 9"
b100000 R"
11
10
1"
#10000
01
00
0"
#15000
b100000 R"
11
10
1"
#20000
01
00
0&
0S#
0"
1$
#25000
b101 `
b101 V
b101 J"
b1000 i
b10100000010000000100011 (
b10100000010000000100011 E
b10100000010000000100011 L
b1 D
0I#
b101 R
b101 L"
b101 3#
b101 G#
b101 T
b101 W
b101 E"
b101 X
b101 D"
b101 Q
b101 G"
b10000000010 a
b10000000010 C"
b10100000000 O
b10100000000 H"
b10000000010 U
b10000000010 F"
b0xxxx Q#
b1000 g
b100 2
b100 J
b100 >"
16"
b10100000000001010010011 5"
1$"
1,"
b11 #"
b11 T"
1}
bx 8"
b1 U#
b1 6
b0xxxxxxxxxxxxxxxxxxxxxxxxxxxxxxxx O#
11
10
b11000000 -
b11000000 P#
1"
#30000
01
00
0"
#35000
b0 V
b0 J"
0d
0n"
1~"
b11 s
b11 ,#
1H#
b0 c
b0 (#
0##
1j
b1000 m
b1000 I"
b1000 *#
1'#
0$#
0]"
0v"
b101 A"
0b
b101 r
b101 W"
b11 Z
b11 8#
b101 p
b101 U"
0B"
b0 T
b100011 Z"
b10 X"
b0 Q
b0 G"
b0 a
b0 C"
b10100000010 O
b10100000010 H"
b1010000000010 U
b1010000000010 F"
b100 `
b1100 i
b10001100000011 (
b10001100000011 E
b10001100000011 L
b10 D
1{
12"
0J#
1I#
b101 /"
b101 -#
b101 D#
b101 1"
b101 2#
b101 ."
b10100000010000000100011 5"
b1000 4"
b100 3"
b1100 g
b1000 2
b1000 J
b1000 >"
b10 U#
b10 6
11
10
b11111111 -
b11111111 P#
1"
#40000
01
00
0"
#45000
b0 V
b0 J"
b11 s
b11 ,#
1d
1q
1n"
0~"
b1 c
b1 (#
1##
0j
b10000 m
b10000 I"
b10000 *#
0'#
b0 A"
1b
b0 r
b0 W"
b10000 i
b1000110000001110010011 (
b1000110000001110010011 E
b1000110000001110010011 L
b11 D
b0 R
b0 L"
b0 3#
b0 G#
b110 T
b11 Z"
b0 W
b0 E"
b0 X
b0 D"
b110 Q
b110 G"
b11 a
b11 C"
b10 O
b10 H"
b1000000000000 U
b1000000000000 F"
b1000 `
0H#
b0 p
b0 U"
b101 u
b1 @
b1 >
b10 [
b10 7#
b0 Z
b0 8#
b10000 g
b1100 2
b1100 J
b1100 >"
b10001100000011 5"
b1100 4"
b1000 3"
1&"
0,"
1J#
1I#
b0 /"
b0 -#
b0 D#
b0 ."
b1000 )"
b100 ("
b100 V"
1""
0}
b101 !"
b101 4#
b101 ~
b101 .#
b101 E#
b101 ,
b101 A
b101 F
b101 %
b101 v
1:"
b11 U#
b11 6
11
10
1"
#50000
01
00
0"
#55000
b10 V
b10 J"
b10000 m
b10000 I"
b10000 *#
1]"
b0 c
b0 (#
0##
1$#
b0 o
b0 +#
0i"
1_
1P
0n"
1C#
b101 +
b101 ?
b101 n
1N"
b101 ?"
b101 O"
13
b0 u
b0 @
b0 >
1Y
b11 \
b11 6#
b0 [
b0 7#
1B"
b110 S
b110 K"
b110 1#
b110 F#
b10 R
b10 L"
b10 3#
b10 G#
b111 T
b10011 Z"
b0 X"
b10 W
b10 E"
b10 X
b10 D"
b111 Q
b111 G"
b10000000011 a
b10000000011 C"
b1000110000 O
b1000110000 H"
b11000000000000001 U
b11000000000000001 F"
b1110 `
b10100 i
b11100000000010000010011 (
b11100000000010000010011 E
b11100000000010000010011 L
b100 D
1="
b101 <"
b101 M"
b101 /#
b101 7"
1}
1x
0{
b0 ~
b0 .#
b0 E#
b101 z
b0 ,
b0 A
b0 F
b0 %
b0 v
b1000 y
0&"
1,"
19#
b1 -"
1J#
0I#
b110 /"
b110 -#
b110 D#
b0 1"
b0 2#
b1100 )"
b1000 ("
b1000 V"
b1000110000001110010011 5"
b10000 4"
b1100 3"
b10100 g
b10000 2
b10000 J
b10000 >"
b100 U#
b100 6
11
10
1"
#60000
01
00
0"
#65000
0_
0P
0C#
xB"
b0 +
b0 ?
b0 n
03
bx @"
0N"
0Y
b10 \
b10 6#
b0 ?"
b0 O"
b101 *
b101 =
b101 I
b101 C
02"
0$"
0,"
09#
b0 -"
b0 #"
b0 T"
0J#
b0 /"
b0 -#
b0 D#
b100 )"
b0 ("
b0 V"
0x
1{
1:#
b1 |
b0 !"
b0 4#
b110 ~
b110 .#
b110 E#
b0 z
b1100 y
0:"
b0 <"
b0 M"
b0 /#
b0 7"
b1000 9"
b101 U#
b101 6
11
10
1"
#70000
01
00
0"
#75000
b111 V
b111 J"
b111 A"
0B"
0b
b111 r
b111 W"
b101 t
b101 S"
1N"
b101 ?"
b101 O"
b0 @"
b10 p
b10 U"
b11 Z
b11 8#
b1 ]
b1 5#
b0 \
b0 6#
b0 S
b0 K"
b0 1#
b0 F#
1I#
b111 R
b111 L"
b111 3#
b111 G#
b1000 T
b111 W
b111 E"
b111 X
b111 D"
b1000 Q
b1000 G"
b100 a
b100 C"
b11100000000 O
b11100000000 H"
b10000000011 U
b10000000011 F"
b10111 `
b11000 i
b100000111000111001100011 (
b100000111000111001100011 E
b100000111000111001100011 L
b101 D
1:"
b1 ;"
b110 <"
b110 M"
b110 /#
b101 8"
b1100 9"
0""
0{
0:#
b0 |
b0 ~
b0 .#
b0 E#
b100 y
12"
1$"
1,"
b11 #"
b11 T"
b111 /"
b111 -#
b111 D#
b10 1"
b10 2#
b110 0"
b110 0#
b10 ."
b10000 )"
b1100 ("
b1100 V"
b11100000000010000010011 5"
b10100 4"
b10000 3"
b11000 g
b10100 2
b10100 J
b10100 >"
b110 U#
b110 6
11
10
1"
#80000
01
00
0"
#85000
b11100 V
b11100 J"
b100 s
b100 ,#
0q
1P
0d
b0 o
b0 +#
1;#
0i"
0q"
1a"
1^
0]"
0H#
1G
1K
b0 c
b0 (#
0##
0j
0'#
b100 m
b100 I"
b100 *#
1l
b1 h
b1 )#
1&#
0$#
1B"
b111 @"
b10 \
b10 6#
bx *
bx =
bx I
bx C
b110000 i
b101000000000010100010011 (
b101000000000010100010011 E
b101000000000010100010011 L
b110 D
b111 S
b111 K"
b111 1#
b111 F#
b1000 R
b1000 L"
b1000 3#
b1000 G#
b11100 T
b1100011 Z"
b1000 W
b1000 E"
b1000 X
b1000 D"
b11100 Q
b11100 G"
b1110 a
b1110 C"
b100000111000 O
b100000111000 H"
b11100000000000100 U
b11100000000000100 F"
b110000 `
b111 p
b111 U"
b111 r
b111 W"
b111 u
b0 t
b0 S"
b11 @
b1 >
0N"
b10 [
b10 7#
b11 Z
b11 8#
b0 ]
b0 5#
b0 ?"
b0 O"
b11100 g
b11000 2
b11000 J
b11000 >"
b100000111000111001100011 5"
b11000 4"
b10100 3"
1I#
b1000 /"
b1000 -#
b1000 D#
b111 1"
b111 2#
b0 0"
b0 0#
b111 ."
b10100 )"
b10000 ("
b10000 V"
1""
0}
1{
b10 !"
b10 4#
b111 ~
b111 .#
b111 E#
b111 ,
b111 A
b111 F
b111 %
b111 v
b10000 y
0="
0:"
b0 ;"
b0 <"
b0 M"
b0 /#
b100 9"
b111 U#
b111 6
11
10
1"
#90000
01
00
0"
#95000
b0 V
b0 J"
b11 s
b11 ,#
1q
1d
1]"
0a"
0G
1$#
0K
b10000 m
b10000 I"
b10000 *#
0l
b0 h
b0 )#
0&#
0^
0P
0;#
b110100 i
1N"
b0 A"
b0 @"
b111 ?"
b111 O"
1Y
b0 Z
b0 8#
b0 \
b0 6#
b1 [
b1 7#
b111 +
b111 ?
b111 n
b0 S
b0 K"
b0 1#
b0 F#
0I#
b0 R
b0 L"
b0 3#
b0 G#
b0 T
b10011 Z"
b0 W
b0 E"
b0 X
b0 D"
b0 Q
b0 G"
b0 a
b0 C"
b0 O
b0 H"
b0 U
b0 F"
b0 `
b1110000000000010110010011 (
b1110000000000010110010011 E
b1110000000000010110010011 L
b1100 D
1="
1:"
b111 <"
b111 M"
b111 /#
bx 8"
b111 7"
b10000 9"
b111 !"
b111 4#
b1000 ~
b1000 .#
b1000 E#
b111 z
b10100 y
06"
b10011 5"
b100 4"
b0 3"
b110100 g
b110000 2
b110000 J
b110000 >"
b1000 U#
b1000 6
11
10
1"
#100000
01
00
0"
#105000
b11100 V
b11100 J"
1b
b0 r
b0 W"
b0 u
b111000 i
b1011000000001100111 (
b1011000000001100111 E
b1011000000001100111 L
b1101 D
b11100 R
b11100 L"
b11100 3#
b11100 G#
b1011 T
b11100 W
b11100 E"
b11100 X
b11100 D"
b1011 Q
b1011 G"
b10000000101 a
b10000000101 C"
b1110000000000 O
b1110000000000 H"
b1110 U
b1110 F"
b1001100 `
b0 p
b0 U"
0Y
b0 [
b0 7#
b111000 g
b110100 2
b110100 J
b110100 >"
16"
b1110000000000010110010011 5"
b110100 4"
b110000 3"
02"
1J#
0I#
b0 /"
b0 -#
b0 D#
b0 1"
b0 2#
b0 ."
b100 )"
b0 ("
b0 V"
b1000 <"
b1000 M"
b1000 /#
b10100 9"
b1001 U#
b1001 6
11
10
1"
#110000
01
00
0"
#115000
b0 V
b0 J"
b11 s
b11 ,#
1^
1P
1?#
1G
0]"
b10 c
b10 (#
1M
1k
b100 h
b100 )#
1h"
0$#
b10000 m
b10000 I"
b10000 *#
0`"
0B"
b11100 @"
b101 *
b101 =
b101 I
b101 C
0b
b11100 r
b11100 W"
b0 +
b0 ?
b0 n
b0 @
b0 >
b11 \
b11 6#
b11100 p
b11100 U"
b1011 S
b1011 K"
b1011 1#
b1011 F#
b0 R
b0 L"
b0 3#
b0 G#
b0 T
b1100111 Z"
b0 W
b0 E"
b0 X
b0 D"
b0 Q
b0 G"
b0 a
b0 C"
b1011000 O
b1011000 H"
b101100000000000000 U
b101100000000000000 F"
b11100 `
b11100 i
b10100000000000011000010011 (
b10100000000000011000010011 E
b10100000000000011000010011 L
b1110 D
0""
1}
b0 !"
b0 4#
b0 ~
b0 .#
b0 E#
b0 z
b0 ,
b0 A
b0 F
b0 %
b0 v
b100 y
12"
1J#
b1011 /"
b1011 -#
b1011 D#
b11100 1"
b11100 2#
b11100 ."
b110100 )"
b110000 ("
b110000 V"
b1011000000001100111 5"
b111000 4"
b110100 3"
b111100 g
b111000 2
b111000 J
b111000 >"
b1010 U#
b1010 6
11
10
1"
#120000
01
00
0"
#125000
b11 s
b11 ,#
1]"
0G
1$#
1d
0a"
1q
0K
b0 c
b0 (#
0M
b10000 m
b10000 I"
b10000 *#
0l
0&#
b100000 i
0k
b0 h
b0 )#
0h"
1B"
b0 `
b0 @"
0^
0P
0?#
bx *
bx =
bx I
bx C
b10001110000011 (
b10001110000011 E
b10001110000011 L
b111 D
0J#
b0 S
b0 K"
b0 1#
b0 F#
b10011 Z"
b0 O
b0 H"
b0 U
b0 F"
b111 >
0N"
b0 \
b0 6#
b0 ?"
b0 O"
b100000 g
b11100 2
b11100 J
b11100 >"
06"
b10011 5"
b100 4"
b0 3"
1""
0}
b11100 !"
b11100 4#
b1011 ~
b1011 .#
b1011 E#
b11100 ,
b11100 A
b11100 F
b11100 %
b11100 v
b110100 y
0="
b0 <"
b0 M"
b0 /#
b101 8"
b0 7"
b100 9"
b1011 U#
b1011 6
11
10
1"
#130000
01
00
0"
#135000
1q
1d
1n"
b11 s
b11 ,#
b1 c
b1 (#
1##
0$#
0]"
0v"
1b
b0 r
b0 W"
1N"
b11100 ?"
b11100 O"
b0 p
b0 U"
0B"
b111 T
b11 Z"
b10 X"
b111 Q
b111 G"
b10000000011 a
b10000000011 C"
b10 O
b10 H"
b1000000000000 U
b1000000000000 F"
b11100 `
b100100 i
b11100101000110001100011 (
b11100101000110001100011 E
b11100101000110001100011 L
b1000 D
1="
b1011 <"
b1011 M"
b1011 /#
bx 8"
b11100 7"
b110100 9"
02"
1J#
1I#
b0 /"
b0 -#
b0 D#
b0 1"
b0 2#
b0 ."
b100 )"
b0 ("
b0 V"
16"
b10001110000011 5"
b100000 4"
b11100 3"
b100100 g
b100000 2
b100000 J
b100000 >"
b1100 U#
b1100 6
11
10
1"
#140000
01
00
0"
#145000
b11000 V
b11000 J"
b100 s
b100 ,#
0d
0q
1<#
1=#
0q"
1a"
0H#
b0 c
b0 (#
0##
0j
0'#
b100 m
b100 I"
b100 *#
1l
b1 h
b1 )#
1&#
b0 o
b0 +#
1_
1P
0i"
1C#
0n"
b101 @"
b101 f
b101 Q"
b111 e
b111 P"
b11 Z
b11 8#
b101 *
b101 =
b101 I
b101 C
b101000 i
b101000000000010100010011 (
b101000000000010100010011 E
b101000000000010100010011 L
b1001 D
0B"
b101 S
b101 K"
b101 1#
b101 F#
b111 R
b111 L"
b111 3#
b111 G#
b11000 T
b1100011 Z"
b0 X"
b111 W
b111 E"
b111 X
b111 D"
b11000 Q
b11000 G"
b1100 a
b1100 C"
b11100101000 O
b11100101000 H"
b10100010000000011 U
b10100010000000011 F"
b111000 `
b0 >
b101000 g
b100100 2
b100100 J
b100100 >"
b11100101000110001100011 5"
b100100 4"
b100000 3"
12"
19#
b1 -"
0J#
1I#
b111 /"
b111 -#
b111 D#
b100000 )"
b11100 ("
b11100 V"
0""
1}
b0 !"
b0 4#
b0 ~
b0 .#
b0 E#
b0 ,
b0 A
b0 F
b0 %
b0 v
b100 y
b1101 U#
b1101 6
11
10
1"
#150000
01
00
0"
#155000
b111000 i
1^
1G
1>#
1K
1_
1P
1<#
1B"
0C#
0=#
0N"
b0 ?"
b0 O"
b101 A"
b10 Z
b10 8#
0="
b0 <"
b0 M"
b0 /#
b101 8"
b0 7"
b100 9"
1""
1:#
b1 |
b111 ~
b111 .#
b111 E#
b100000 y
02"
0$"
0,"
09#
b0 -"
b0 #"
b0 T"
0I#
b0 /"
b0 -#
b0 D#
b100 )"
b0 ("
b0 V"
b1110 U#
b1110 6
11
10
1"
#160000
01
00
0"
