pipeline_cpu.vcd
$date
	Mon Jun 30 17:29:24 2025
$end
$version
	Icarus Verilog
$end
$timescale
	1ps
$end
$scope module pipeline_sccomp_tb $end
$var wire 32 ! reg_data [31:0] $end
$var reg 1 " clk $end
$var reg 5 # reg_sel [4:0] $end
$var reg 1 $ rstn $end
$scope module U_pipeline_sccomp $end
$var wire 32 % alu_disp_data [31:0] $end
$var wire 1 " clk $end
$var wire 5 & reg_sel [4:0] $end
$var wire 1 ' rst $end
$var wire 1 $ rstn $end
$var wire 16 ( sw_i [15:0] $end
$var wire 32 ) reg_data [31:0] $end
$var wire 32 * instr [31:0] $end
$var wire 3 + dm_type [2:0] $end
$var wire 32 , dm_dout [31:0] $end
$var wire 32 - dm_din [31:0] $end
$var wire 32 . dm_addr [31:0] $end
$var wire 8 / disp_seg_o [7:0] $end
$var wire 8 0 disp_an_o [7:0] $end
$var wire 1 1 cpu_pause $end
$var wire 1 2 clk_select $end
$var wire 1 3 clk_cpu $end
$var wire 32 4 PC [31:0] $end
$var wire 1 5 MemWrite $end
$var parameter 32 6 DMEM_ADDR_NUM $end
$var parameter 32 7 REG_ADDR_NUM $end
$var reg 32 8 clkdiv [31:0] $end
$var reg 64 9 display_data [63:0] $end
$var reg 7 : dmem_addr [6:0] $end
$var reg 32 ; dmem_data [31:0] $end
$var reg 64 < led_disp_data [63:0] $end
$var reg 5 = reg_addr [4:0] $end
$var reg 32 > reg_disp_data [31:0] $end
$scope module U_DM $end
$var wire 1 3 clk $end
$var wire 32 ? dout [31:0] $end
$var wire 7 @ word_addr [6:0] $end
$var wire 32 A din [31:0] $end
$var wire 2 B byte_offset [1:0] $end
$var wire 32 C addr [31:0] $end
$var wire 1 5 DMWr $end
$var wire 3 D DMType [2:0] $end
$var reg 32 E load_data [31:0] $end
$upscope $end
$scope module U_IM $end
$var wire 7 F addr [8:2] $end
$var wire 32 G dout [31:0] $end
$upscope $end
$scope module U_pipeline_CPU $end
$var wire 32 H Addr_out [31:0] $end
$var wire 1 I BranchTaken $end
$var wire 3 J DMType_out [2:0] $end
$var wire 32 K Data_in [31:0] $end
$var wire 32 L PC_out [31:0] $end
$var wire 1 M branch_condition $end
$var wire 1 3 clk $end
$var wire 32 N inst_in [31:0] $end
$var wire 1 O is_jump_ID $end
$var wire 1 P jalr_load_hazard_detected $end
$var wire 1 5 mem_w $end
$var wire 5 Q reg_sel [4:0] $end
$var wire 1 ' reset $end
$var wire 20 R uimm [19:0] $end
$var wire 1 S stall $end
$var wire 12 T simm [11:0] $end
$var wire 5 U rs2_ID [4:0] $end
$var wire 5 V rs1_ID [4:0] $end
$var wire 32 W reg_data [31:0] $end
$var wire 5 X rd_ID [4:0] $end
$var wire 20 Y jimm [19:0] $end
$var wire 32 Z imm_ID [31:0] $end
$var wire 5 [ iimm_shamt [4:0] $end
$var wire 12 \ iimm [11:0] $end
$var wire 1 ] forwardMEM $end
$var wire 2 ^ forwardB_branch [1:0] $end
$var wire 2 _ forwardB [1:0] $end
$var wire 2 ` forwardA_branch [1:0] $end
$var wire 2 a forwardA [1:0] $end
$var wire 1 b flush_IFID $end
$var wire 1 c flush_IDEX $end
$var wire 32 d branch_target [31:0] $end
$var wire 12 e bimm [11:0] $end
$var wire 1 f Zero_EX $end
$var wire 2 g WDSel_ID [1:0] $end
$var wire 1 h RegWrite_ID $end
$var wire 32 i RD2_ID [31:0] $end
$var wire 32 j RD1_ID [31:0] $end
$var wire 32 k PC4_IF [31:0] $end
$var wire 3 l NPCOp_ID [2:0] $end
$var wire 32 m NPC [31:0] $end
$var wire 1 n MemWrite_ID $end
$var wire 1 o IsJALR_ID $end
$var wire 1 p IsBranch_ID $end
$var wire 6 q EXTOp_ID [5:0] $end
$var wire 32 r Data_out [31:0] $end
$var wire 3 s DMType_ID [2:0] $end
$var wire 32 t ALU_B [31:0] $end
$var wire 1 u ALUSrc_ID $end
$var wire 32 v ALUOut_EX [31:0] $end
$var wire 5 w ALUOp_ID [4:0] $end
$var reg 32 x ALU_A [31:0] $end
$var reg 32 y ALU_B_forwarded [31:0] $end
$var reg 32 z EXMEM_ALUOut [31:0] $end
$var reg 3 { EXMEM_DMType [2:0] $end
$var reg 1 | EXMEM_MemWrite $end
$var reg 32 } EXMEM_PC4 [31:0] $end
$var reg 32 ~ EXMEM_RD2 [31:0] $end
$var reg 1 !" EXMEM_RegWrite $end
$var reg 2 "" EXMEM_WDSel [1:0] $end
$var reg 1 #" EXMEM_Zero $end
$var reg 5 $" EXMEM_rd [4:0] $end
$var reg 5 %" EXMEM_rs2 [4:0] $end
$var reg 1 &" EXMEM_valid $end
$var reg 5 '" IDEX_ALUOp [4:0] $end
$var reg 1 (" IDEX_ALUSrc $end
$var reg 3 )" IDEX_DMType [2:0] $end
$var reg 1 *" IDEX_MemWrite $end
$var reg 3 +" IDEX_NPCOp [2:0] $end
$var reg 32 ," IDEX_PC [31:0] $end
$var reg 32 -" IDEX_PC4 [31:0] $end
$var reg 32 ." IDEX_RD1 [31:0] $end
$var reg 32 /" IDEX_RD2 [31:0] $end
$var reg 1 0" IDEX_RegWrite $end
$var reg 2 1" IDEX_WDSel [1:0] $end
$var reg 32 2" IDEX_imm [31:0] $end
$var reg 5 3" IDEX_rd [4:0] $end
$var reg 5 4" IDEX_rs1 [4:0] $end
$var reg 5 5" IDEX_rs2 [4:0] $end
$var reg 1 6" IDEX_valid $end
$var reg 32 7" IFID_PC [31:0] $end
$var reg 32 8" IFID_PC4 [31:0] $end
$var reg 32 9" IFID_inst [31:0] $end
$var reg 1 :" IFID_valid $end
$var reg 32 ;" MEMWB_ALUOut [31:0] $end
$var reg 32 <" MEMWB_MemData [31:0] $end
$var reg 32 =" MEMWB_PC4 [31:0] $end
$var reg 1 >" MEMWB_RegWrite $end
$var reg 2 ?" MEMWB_WDSel [1:0] $end
$var reg 5 @" MEMWB_rd [4:0] $end
$var reg 1 A" MEMWB_valid $end
$var reg 32 B" PC_IF [31:0] $end
$var reg 32 C" WriteData_WB [31:0] $end
$var reg 32 D" branch_A [31:0] $end
$var reg 32 E" branch_B [31:0] $end
$var reg 1 F" branch_result $end
$scope module U_EXT $end
$var wire 12 G" bimm [11:0] $end
$var wire 12 H" iimm [11:0] $end
$var wire 5 I" iimm_shamt [4:0] $end
$var wire 20 J" jimm [19:0] $end
$var wire 12 K" simm [11:0] $end
$var wire 20 L" uimm [19:0] $end
$var wire 6 M" EXTOp [5:0] $end
$var reg 32 N" immout [31:0] $end
$upscope $end
$scope module U_RF $end
$var wire 5 O" A1 [4:0] $end
$var wire 5 P" A2 [4:0] $end
$var wire 5 Q" A3 [4:0] $end
$var wire 1 R" RFWr $end
$var wire 32 S" WD [31:0] $end
$var wire 1 3 clk $end
$var wire 1 ' rst $end
$var wire 32 T" RD2 [31:0] $end
$var wire 32 U" RD1 [31:0] $end
$var integer 32 V" i [31:0] $end
$upscope $end
$scope module U_alu $end
$var wire 32 W" A [31:0] $end
$var wire 5 X" ALUOp [4:0] $end
$var wire 32 Y" B [31:0] $end
$var wire 32 Z" PC [31:0] $end
$var wire 1 f Zero $end
$var reg 32 [" C [31:0] $end
$upscope $end
$scope module U_ctrl $end
$var wire 1 u ALUSrc $end
$var wire 3 \" Funct3 [2:0] $end
$var wire 7 ]" Funct7 [6:0] $end
$var wire 1 n MemWrite $end
$var wire 7 ^" Op [6:0] $end
$var wire 1 h RegWrite $end
$var wire 1 _" Zero $end
$var wire 1 `" i_add $end
$var wire 1 a" i_addi $end
$var wire 1 b" i_and $end
$var wire 1 c" i_andi $end
$var wire 1 d" i_auipc $end
$var wire 1 e" i_beq $end
$var wire 1 f" i_bge $end
$var wire 1 g" i_bgeu $end
$var wire 1 h" i_blt $end
$var wire 1 i" i_bltu $end
$var wire 1 j" i_bne $end
$var wire 1 k" i_jal $end
$var wire 1 l" i_jalr $end
$var wire 1 m" i_lb $end
$var wire 1 n" i_lbu $end
$var wire 1 o" i_lh $end
$var wire 1 p" i_lhu $end
$var wire 1 q" i_lui $end
$var wire 1 r" i_lw $end
$var wire 1 s" i_or $end
$var wire 1 t" i_ori $end
$var wire 1 u" i_sb $end
$var wire 1 v" i_sh $end
$var wire 1 w" i_sll $end
$var wire 1 x" i_slli $end
$var wire 1 y" i_slt $end
$var wire 1 z" i_slti $end
$var wire 1 {" i_sltiu $end
$var wire 1 |" i_sltu $end
$var wire 1 }" i_sra $end
$var wire 1 ~" i_srai $end
$var wire 1 !# i_srl $end
$var wire 1 "# i_srli $end
$var wire 1 ## i_sub $end
$var wire 1 $# i_sw $end
$var wire 1 %# i_xor $end
$var wire 1 &# i_xori $end
$var wire 1 '# itype_l $end
$var wire 1 (# itype_r $end
$var wire 1 )# rtype $end
$var wire 1 *# sbtype $end
$var wire 1 +# stype $end
$var wire 2 ,# WDSel [1:0] $end
$var wire 3 -# NPCOp [2:0] $end
$var wire 6 .# EXTOp [5:0] $end
$var wire 3 /# DMType [2:0] $end
$var wire 5 0# ALUOp [4:0] $end
$upscope $end
$scope module U_forwarding $end
$var wire 1 0" RegWrite_EX $end
$var wire 1 !" RegWrite_MEM $end
$var wire 1 >" RegWrite_WB $end
$var wire 5 1# rd_EX [4:0] $end
$var wire 5 2# rd_MEM [4:0] $end
$var wire 5 3# rd_WB [4:0] $end
$var wire 5 4# rs1_EX [4:0] $end
$var wire 5 5# rs1_ID [4:0] $end
$var wire 5 6# rs2_EX [4:0] $end
$var wire 5 7# rs2_ID [4:0] $end
$var wire 5 8# rs2_MEM [4:0] $end
$var reg 2 9# forwardA [1:0] $end
$var reg 2 :# forwardA_branch [1:0] $end
$var reg 2 ;# forwardB [1:0] $end
$var reg 2 <# forwardB_branch [1:0] $end
$var reg 1 ] forwardMEM $end
$upscope $end
$scope module U_hazard_detection $end
$var wire 1 I BranchTaken $end
$var wire 1 p IsBranch_ID $end
$var wire 1 o IsJALR_ID $end
$var wire 1 =# MemRead_EX $end
$var wire 1 ># MemRead_MEM $end
$var wire 1 n MemWrite_ID $end
$var wire 1 0" RegWrite_EX $end
$var wire 1 !" RegWrite_MEM $end
$var wire 1 ?# branch_arith_hazard $end
$var wire 1 @# branch_load_hazard $end
$var wire 1 A# branch_load_hazard_EX $end
$var wire 1 B# branch_load_hazard_MEM $end
$var wire 1 C# jalr_arith_hazard $end
$var wire 1 D# jalr_load_hazard $end
$var wire 1 E# jalr_load_hazard_EX $end
$var wire 1 F# jalr_load_hazard_MEM $end
$var wire 1 G# load_use_hazard $end
$var wire 5 H# rd_EX [4:0] $end
$var wire 5 I# rd_MEM [4:0] $end
$var wire 5 J# rs1_ID [4:0] $end
$var wire 5 K# rs2_ID [4:0] $end
$var wire 1 L# rs2_can_forward $end
$var wire 1 M# rs2_hazard $end
$var wire 1 N# rs1_hazard $end
$var reg 1 c flush_IDEX $end
$var reg 1 b flush_IFID $end
$var reg 1 S stall $end
$upscope $end
$upscope $end
$scope module u_seg7x16 $end
$var wire 1 " clk $end
$var wire 64 O# data [63:0] $end
$var wire 1 P# mode $end
$var wire 1 $ rstn $end
$var wire 1 Q# clk_1k $end
$var reg 3 R# addr [2:0] $end
$var reg 64 S# data_store [63:0] $end
$var reg 8 T# seg [7:0] $end
$var reg 8 U# seg_data [7:0] $end
$var reg 8 V# sel [7:0] $end
$scope module cd_1khz $end
$var wire 1 " clk_in $end
$var wire 1 W# reset $end
$var parameter 32 X# COUNT $end
$var reg 1 Q# clk_out $end
$var reg 32 Y# count [31:0] $end
$upscope $end
$upscope $end
$upscope $end
$upscope $end
$enddefinitions $end
$comment Show the parameter values. $end
$dumpall
b1100001101010000 X#
b100000 7
b10000000 6
$end
#0
$dumpvars
b0 Y#
1W#
b11111111 V#
b0 U#
b11111111 T#
b0 S#
b0 R#
0Q#
0P#
b0xxxxxxxxxxxxxxxxxxxxxxxxxxxxxxxx O#
xN#
xM#
xL#
bx K#
bx J#
bx I#
bx H#
xG#
xF#
xE#
xD#
xC#
xB#
xA#
x@#
x?#
x>#
x=#
bx <#
bx ;#
bx :#
bx 9#
bx 8#
bx 7#
bx 6#
bx 5#
bx 4#
bx 3#
bx 2#
bx 1#
bx 0#
bx /#
bx .#
bx -#
bx ,#
x+#
x*#
x)#
x(#
x'#
x&#
x%#
x$#
x##
x"#
x!#
x~"
x}"
x|"
x{"
xz"
xy"
xx"
xw"
xv"
xu"
xt"
xs"
xr"
xq"
xp"
xo"
xn"
xm"
xl"
xk"
xj"
xi"
xh"
xg"
xf"
xe"
xd"
xc"
xb"
xa"
x`"
0_"
bx ^"
bx ]"
bx \"
bx ["
bx Z"
bx Y"
bx X"
bx W"
b100000 V"
bx U"
bx T"
bx S"
xR"
bx Q"
bx P"
bx O"
bx N"
bx M"
bx L"
bx K"
bx J"
bx I"
bx H"
bx G"
xF"
bx E"
bx D"
bx C"
bx B"
xA"
bx @"
bx ?"
x>"
bx ="
bx <"
bx ;"
x:"
bx 9"
bx 8"
bx 7"
x6"
bx 5"
bx 4"
bx 3"
bx 2"
bx 1"
x0"
bx /"
bx ."
bx -"
bx ,"
bx +"
x*"
bx )"
x("
bx '"
x&"
bx %"
bx $"
x#"
bx ""
x!"
bx ~
bx }
x|
bx {
bx z
bx y
bx x
bx w
bx v
xu
bx t
bx s
bx r
bx q
xp
xo
xn
bx m
bx l
bx k
bx j
bx i
xh
bx g
xf
bx e
bx d
xc
xb
bx a
bx `
bx _
bx ^
x]
bx \
bx [
bx Z
bx Y
bx X
b0 W
bx V
bx U
bx T
xS
bx R
b0 Q
xP
xO
bx N
xM
bx L
bx K
bx J
xI
bx H
bx G
bx F
bx E
bx D
bx C
bx B
bx A
bx @
bx ?
bx >
b0 =
b1111111111111111111111111111111111111111111111111111111111111111 <
bx ;
b0 :
b0xxxxxxxxxxxxxxxxxxxxxxxxxxxxxxxx 9
b0 8
x5
bx 4
03
02
01
b11111111 0
b11111111 /
bx .
bx -
bx ,
bx +
bx *
b0 )
b0 (
1'
b0 &
bx %
0$
b0 #
0"
b0 !
$end
#5000
b0 d
b0 Z
b0 N"
0`"
1u
1h
1a"
0m"
0u"
0e"
b100 m
0##
0I
1(#
0M
0)#
0'#
0n
0+#
0p
0*#
b0 g
b0 ,#
0O
b11 w
b11 0#
0o
0l"
b0 l
b0 -#
0k"
0d"
0q"
0%#
b0 s
b0 /#
0n"
0&#
b10000 q
b10000 M"
b10000 .#
0h"
1F"
0s"
0y"
0r"
0t"
0z"
0$#
0i"
b0 D"
b0 E"
0b"
0w"
0|"
0!#
0}"
0o"
0p"
0c"
0{"
0x"
0"#
0~"
0v"
0j"
0f"
0g"
0c
0b
0S
0P
0@#
0D#
b0 j
b0 U"
0L#
b0 i
b0 T"
0G#
0A#
0?#
0E#
0C#
0B#
0F#
b11110001111100101111001010110111 *
b11110001111100101111001010110111 G
b11110001111100101111001010110111 N
b0 F
1N#
b0 V
b0 O"
b0 5#
b0 J#
1M#
b0 U
b0 P"
b0 7#
b0 K#
b0 X
b10011 ^"
b0 ]"
b0 \"
b0 [
b0 I"
b0 \
b0 H"
b0 T
b0 K"
b0 e
b0 G"
b0 R
b0 L"
b0 Y
b0 J"
b0 t
b0 Y"
1f
b0 v
b0 ["
05
b0 -
b0 A
b0 r
b0 y
b0 x
b0 W"
b0 B
b0 @
0R"
0]
b0 ^
b0 <#
b0 `
b0 :#
b0 _
b0 ;#
b0 a
b0 9#
b0 C"
b0 S"
b100 k
b0 4
b0 L
b0 B"
0:"
b10011 9"
b100 8"
b0 7"
06"
0("
0*"
00"
0=#
b0 1"
b0 )"
b0 +"
b0 '"
b0 X"
b0 3"
b0 1#
b0 H#
b0 5"
b0 6#
b0 4"
b0 4#
b0 2"
b0 /"
b0 ."
b100 -"
b0 ,"
b0 Z"
0&"
0#"
0|
0!"
0>#
b0 ""
b0 +
b0 D
b0 J
b0 {
b0 %"
b0 8#
b0 $"
b0 2#
b0 I#
b0 ~
b0 .
b0 C
b0 H
b0 %
b0 z
b100 }
0A"
0>"
b0 ?"
b0 @"
b0 Q"
b0 3#
b0 <"
b0 ;"
b100 ="
b100000 V"
13
12
1"
#10000
03
02
0"
#15000
b100000 V"
13
12
1"
#20000
03
02
0'
0W#
0"
1$
#25000
b11110001111100101111000000000000 d
b11110001111100101111000000000000 Z
b11110001111100101111000000000000 N"
1q"
0(#
0d"
0c"
b10 q
b10 M"
b10 .#
0a"
0{"
b1 w
b1 0#
0x"
b1000 m
b110001100010111 *
b110001100010111 G
b110001100010111 N
b1 F
0N#
b101 V
b101 O"
b101 5#
b101 J#
0M#
b11111 U
b11111 P"
b11111 7#
b11111 K#
b101 X
b110111 ^"
b1111000 ]"
b111 \"
b11111 [
b11111 I"
b111100011111 \
b111100011111 H"
b111100000101 T
b111100000101 K"
b111110000010 e
b111110000010 G"
b11110001111100101111 R
b11110001111100101111 L"
b10010111111110001111 Y
b10010111111110001111 J"
b0xxxx U#
b1000 k
b100 4
b100 L
b100 B"
1:"
b11110001111100101111001010110111 9"
1("
10"
b11 '"
b11 X"
1#"
bx <"
b1 Y#
b1 8
b0xxxxxxxxxxxxxxxxxxxxxxxxxxxxxxxx S#
13
12
b11000000 /
b11000000 T#
1"
#30000
03
02
0"
#35000
b110000000000000 Z
b110000000000000 N"
1d"
1u
b10 w
b10 0#
b10 q
b10 M"
b10 .#
0q"
0f
b11110001111100101111000000000000 v
b11110001111100101111000000000000 ["
b11110001111100101111000000000000 t
b11110001111100101111000000000000 Y"
0F"
b0 V
b0 O"
b0 5#
b0 J#
b0 U
b0 P"
b0 7#
b0 K#
b110 X
b10111 ^"
b0 ]"
b110 \"
b0 [
b0 I"
b0 \
b0 H"
b110 T
b110 K"
b11 e
b11 G"
b110 R
b110 L"
b11000000000000 Y
b11000000000000 J"
b110000000000100 d
b1100 m
b10011 *
b10011 G
b10011 N
b10 F
1!"
16"
b1 '"
b1 X"
0N#
b101 3"
b101 1#
b101 H#
b11111 5"
b11111 6#
b101 4"
b101 4#
b11110001111100101111000000000000 2"
b110001100010111 9"
b1000 8"
b100 7"
b1100 k
b1000 4
b1000 L
b1000 B"
b10 Y#
b10 8
13
12
b11111111 /
b11111111 T#
1"
#40000
03
02
0"
#45000
b0 Z
b0 N"
b11 w
b11 0#
1a"
1u
1(#
1h
b10000 q
b10000 M"
b10000 .#
0d"
b10000 m
b11 F
1F"
b0 X
b10011 ^"
b0 \"
b0 T
b0 K"
b0 e
b0 G"
b0 R
b0 L"
b0 Y
b0 J"
b1000 d
b110000000000000 t
b110000000000000 Y"
b110000000000100 v
b110000000000100 ["
b10000 k
b1100 4
b1100 L
b1100 B"
b10011 9"
b1100 8"
b1000 7"
b10 '"
b10 X"
b110 3"
b110 1#
b110 H#
b0 5"
b0 6#
b0 4"
b0 4#
b110000000000000 2"
b1000 -"
b100 ,"
b100 Z"
1&"
0#"
b11111 %"
b11111 8#
b101 $"
b101 2#
b101 I#
b11110001111100101111000000000000 .
b11110001111100101111000000000000 C
b11110001111100101111000000000000 H
b11110001111100101111000000000000 %
b11110001111100101111000000000000 z
1>"
b11 Y#
b11 8
13
12
1"
#50000
03
02
0"
#55000
1f
1R"
b11110001111100101111000000000000 C"
b11110001111100101111000000000000 S"
b1 @
b0 t
b0 Y"
b0 v
b0 ["
b1100 d
b10100 m
b100 F
1A"
b101 @"
b101 Q"
b101 3#
b11110001111100101111000000000000 ;"
b0 %"
b0 8#
b110 $"
b110 2#
b110 I#
b110000000000100 .
b110000000000100 C
b110000000000100 H
b110000000000100 %
b110000000000100 z
b1000 }
b11 '"
b11 X"
1N#
1M#
b0 3"
b0 1#
b0 H#
b0 2"
b1100 -"
b1000 ,"
b1000 Z"
b10000 8"
b1100 7"
b10100 k
b10000 4
b10000 L
b10000 B"
b100 Y#
b100 8
13
12
1"
#60000
03
02
0"
#65000
b11000 m
b111111010000101000001010010011 *
b111111010000101000001010010011 G
b111111010000101000001010010011 N
b101 F
b10000 d
b0 @
b110000000000100 C"
b110000000000100 S"
b11000 k
b10100 4
b10100 L
b10100 B"
b10100 8"
b10000 7"
b10000 -"
b1100 ,"
b1100 Z"
1#"
b0 $"
b0 2#
b0 I#
b0 .
b0 C
b0 H
b0 %
b0 z
b1100 }
b110 @"
b110 Q"
b110 3#
b110000000000100 ;"
b1000 ="
b101 Y#
b101 8
13
12
1"
#70000
03
02
0"
#75000
b1111110100 Z
b1111110100 N"
0F"
b11110001111100101111000000000000 D"
b11110001111100101111000000000000 j
b11110001111100101111000000000000 U"
b0 C"
b0 S"
0N#
b101 V
b101 O"
b101 5#
b101 J#
0M#
b10100 U
b10100 P"
b10100 7#
b10100 K#
b101 X
b11111 ]"
b10100 [
b10100 I"
b1111110100 \
b1111110100 H"
b1111100101 T
b1111100101 K"
b10111110010 e
b10111110010 G"
b111111010000101000 R
b111111010000101000 L"
b10100000111111010 Y
b10100000111111010 J"
b10000001000 d
b11100 m
b10011 *
b10011 G
b10011 N
b110 F
b0 @"
b0 Q"
b0 3#
b0 ;"
b1100 ="
b10000 }
b10100 -"
b10000 ,"
b10000 Z"
b111111010000101000001010010011 9"
b11000 8"
b10100 7"
b11100 k
b11000 4
b11000 L
b11000 B"
b110 Y#
b110 8
13
12
1"
#80000
03
02
0"
#85000
b0 Z
b0 N"
1F"
b0 j
b0 U"
b0 D"
0f
b11110001111100101111001111110100 v
b11110001111100101111001111110100 ["
b100000 m
b111 F
b0 V
b0 O"
b0 5#
b0 J#
b0 U
b0 P"
b0 7#
b0 K#
b0 X
b0 ]"
b0 [
b0 I"
b0 \
b0 H"
b0 T
b0 K"
b0 e
b0 G"
b0 R
b0 L"
b0 Y
b0 J"
b11000 d
b0 `
b0 :#
b1111110100 t
b1111110100 Y"
b11110001111100101111000000000000 x
b11110001111100101111000000000000 W"
b100000 k
b11100 4
b11100 L
b11100 B"
b10011 9"
b11100 8"
b11000 7"
0N#
b101 3"
b101 1#
b101 H#
b10100 5"
b10100 6#
b101 4"
b101 4#
b1111110100 2"
b11110001111100101111000000000000 ."
b11000 -"
b10100 ,"
b10100 Z"
b10100 }
b10000 ="
b111 Y#
b111 8
13
12
1"
#90000
03
02
0"
#95000
1f
b0 v
b0 ["
b1111101 @
b0 t
b0 Y"
b0 x
b0 W"
b11100 d
b100100 m
b1000 F
b10100 ="
0#"
b10100 %"
b10100 8#
b101 $"
b101 2#
b101 I#
b11110001111100101111001111110100 .
b11110001111100101111001111110100 C
b11110001111100101111001111110100 H
b11110001111100101111001111110100 %
b11110001111100101111001111110100 z
b11000 }
1N#
1M#
b0 3"
b0 1#
b0 H#
b0 5"
b0 6#
b0 4"
b0 4#
b0 2"
b0 ."
b11100 -"
b11000 ,"
b11000 Z"
b100000 8"
b11100 7"
b100100 k
b100000 4
b100000 L
b100000 B"
b1000 Y#
b1000 8
13
12
1"
#100000
03
02
0"
#105000
b101000 m
b1001 F
b100000 d
b0 @
b11110001111100101111001111110100 C"
b11110001111100101111001111110100 S"
b101000 k
b100100 4
b100100 L
b100100 B"
b100100 8"
b100000 7"
b100000 -"
b11100 ,"
b11100 Z"
1#"
b0 %"
b0 8#
b0 $"
b0 2#
b0 I#
b0 .
b0 C
b0 H
b0 %
b0 z
b11100 }
b101 @"
b101 Q"
b101 3#
b11110001111100101111001111110100 ;"
b11000 ="
b1001 Y#
b1001 8
13
12
1"
#110000
03
02
0"
#115000
b0 C"
b0 S"
b100100 d
b101100 m
b10100000000000000100011 *
b10100000000000000100011 G
b10100000000000000100011 N
b1010 F
b0 @"
b0 Q"
b0 3#
b0 ;"
b11100 ="
b100000 }
b100100 -"
b100000 ,"
b100000 Z"
b101000 8"
b100100 7"
b101100 k
b101000 4
b101000 L
b101000 B"
b1010 Y#
b1010 8
13
12
1"
#120000
03
02
0"
#125000
b0 Z
b0 N"
0h
b11 s
b11 /#
0m"
1u"
0a"
b0 g
b0 ,#
0'#
1n
b1000 q
b1000 M"
b1000 .#
1+#
0(#
0F"
b11110001111100101111001111110100 E"
b11110001111100101111001111110100 i
b11110001111100101111001111110100 T"
b110000 m
b10100000000000010100011 *
b10100000000000010100011 G
b10100000000000010100011 N
b1011 F
0M#
b101 U
b101 P"
b101 7#
b101 K#
b100011 ^"
b101 [
b101 I"
b101 \
b101 H"
b10100000000 R
b10100000000 L"
b10000000010 Y
b10000000010 J"
b101000 d
b110000 k
b101100 4
b101100 L
b101100 B"
b10100000000000000100011 9"
b101100 8"
b101000 7"
b101000 -"
b100100 ,"
b100100 Z"
b100100 }
b100000 ="
b1011 Y#
b1011 8
13
12
1"
#130000
03
02
0"
#135000
b1 Z
b1 N"
b11110001111100101111001111110100 y
b1 X
b1 T
b1 K"
b10000000000 e
b10000000000 G"
b101101 d
b110100 m
b10100000001000100100011 *
b10100000001000100100011 G
b10100000001000100100011 N
b1100 F
b100100 ="
b101000 }
1*"
00"
b11 )"
b101 5"
b101 6#
b11110001111100101111001111110100 /"
b101100 -"
b101000 ,"
b101000 Z"
b10100000000000010100011 9"
b110000 8"
b101100 7"
b110100 k
b110000 4
b110000 L
b110000 B"
b1100 Y#
b1100 8
13
12
1"
#140000
03
02
0"
#145000
b10 Z
b10 N"
b1 s
b1 /#
0u"
1v"
0f
b1 v
b1 ["
b111000 m
b10100000010001000100011 *
b10100000010001000100011 G
b10100000010001000100011 N
b1101 F
1F"
b10 X
b1 \"
b10 T
b10 K"
b1 e
b1 G"
b10100000001 R
b10100000001 L"
b110000000010 Y
b110000000010 J"
b110010 d
b1 t
b1 Y"
15
b11110001111100101111001111110100 -
b11110001111100101111001111110100 A
b11110001111100101111001111110100 r
b111000 k
b110100 4
b110100 L
b110100 B"
b10100000001000100100011 9"
b110100 8"
b110000 7"
0N#
b1 3"
b1 1#
b1 H#
b1 2"
b110000 -"
b101100 ,"
b101100 Z"
1|
0!"
b11 +
b11 D
b11 J
b11 {
b101 %"
b101 8#
b11110001111100101111001111110100 ~
b101100 }
b101000 ="
b1101 Y#
b1101 8
13
12
1"
#150000
03
02
0"
#155000
b100 Z
b100 N"
1$#
0u"
b0 s
b0 /#
0v"
b10 v
b10 ["
0R"
b1 B
b10 t
b10 Y"
0F"
b100 X
b10 \"
b100 T
b100 K"
b10 e
b10 G"
b10100000010 R
b10100000010 L"
b1010000000010 Y
b1010000000010 J"
b111000 d
b111100 m
b10011 *
b10011 G
b10011 N
b1110 F
0>"
b101100 ="
0#"
b1 $"
b1 2#
b1 I#
b1 .
b1 C
b1 H
b1 %
b1 z
b110000 }
b1 )"
b10 3"
b10 1#
b10 H#
b10 2"
b110100 -"
b110000 ,"
b110000 Z"
b10100000010001000100011 9"
b111000 8"
b110100 7"
b111100 k
b111000 4
b111000 L
b111000 B"
b1110 Y#
b1110 8
13
12
1"
#160000
03
02
0"
#165000
b0 Z
b0 N"
b11 w
b11 0#
0`"
1h
1u
1a"
1(#
0n
b10000 q
b10000 M"
b10000 .#
0+#
0)#
b0 s
b0 /#
0u"
0$#
1F"
b0 E"
b0 i
b0 T"
b100 v
b100 ["
b1000000 m
b1111 F
b0 U
b0 P"
b0 7#
b0 K#
b0 X
b10011 ^"
b0 \"
b0 [
b0 I"
b0 \
b0 H"
b0 T
b0 K"
b0 e
b0 G"
b0 R
b0 L"
b0 Y
b0 J"
b111000 d
b100 t
b100 Y"
b10 B
b1 C"
b1 S"
bx ,
bx ?
bx K
bx E
b1000000 k
b111100 4
b111100 L
b111100 B"
b10011 9"
b111100 8"
b111000 7"
b0 )"
b100 3"
b100 1#
b100 H#
b100 2"
b111000 -"
b110100 ,"
b110100 Z"
b1 +
b1 D
b1 J
b1 {
b10 $"
b10 2#
b10 I#
b10 .
b10 C
b10 H
b10 %
b10 z
b110100 }
b1 @"
b1 Q"
b1 3#
b1 ;"
b110000 ="
b1111 Y#
b1111 8
13
12
1"
#170000
03
02
0"
#175000
1f
b0 v
b0 ["
b10 C"
b10 S"
b0 B
b1 @
b0 t
b0 Y"
b0 y
b111100 d
b1000100 m
b10000 F
b10 @"
b10 Q"
b10 3#
b10 ;"
b110100 ="
b0 +
b0 D
b0 J
b0 {
b100 $"
b100 2#
b100 I#
b100 .
b100 C
b100 H
b100 %
b100 z
b111000 }
0*"
10"
1N#
1M#
b0 3"
b0 1#
b0 H#
b0 5"
b0 6#
b0 2"
b0 /"
b111100 -"
b111000 ,"
b111000 Z"
b1000000 8"
b111100 7"
b1000100 k
b1000000 4
b1000000 L
b1000000 B"
b10000 Y#
b10000 8
13
12
1"
#180000
03
02
0"
#185000
b1001000 m
b10001 F
b1000000 d
05
b0 -
b0 A
b0 r
b0 @
b100 C"
b100 S"
b11110011111101001111010011110100 ,
b11110011111101001111010011110100 ?
b11110011111101001111010011110100 K
b11110011111101001111010011110100 E
b1001000 k
b1000100 4
b1000100 L
b1000100 B"
b1000100 8"
b1000000 7"
b1000000 -"
b111100 ,"
b111100 Z"
1#"
0|
1!"
b0 %"
b0 8#
b0 $"
b0 2#
b0 I#
b0 ~
b0 .
b0 C
b0 H
b0 %
b0 z
b111100 }
b100 @"
b100 Q"
b100 3#
b100 ;"
b111000 ="
b10001 Y#
b10001 8
13
12
1"
#190000
03
02
0"
#195000
1R"
b0 C"
b0 S"
b1000100 d
b1001100 m
b10000000000001110000011 *
b10000000000001110000011 G
b10000000000001110000011 N
b10010 F
1>"
b0 @"
b0 Q"
b0 3#
b11110011111101001111010011110100 <"
b0 ;"
b111100 ="
b1000000 }
b1000100 -"
b1000000 ,"
b1000000 Z"
b1001000 8"
b1000100 7"
b1001100 k
b1001000 4
b1001000 L
b1001000 B"
b10010 Y#
b10010 8
13
12
1"
#200000
03
02
0"
